…
#Fit the model
fitted_model <- bt_fit_model(model = topic_model, 
                             documents = data$message, 
                             embeddings = embeddings)
#> UMAP(angular_rp_forest=True, low_memory=False, metric='cosine', min_dist=0.0, n_components=10, n_neighbors=10, random_state=42, verbose=True)
#> Fri Sep 15 12:58:15 2023 Construct fuzzy simplicial set
#> Fri Sep 15 12:58:27 2023 Finding Nearest Neighbors
#> Fri Sep 15 12:58:29 2023 Finished Nearest Neighbor Search
#> Fri Sep 15 12:58:31 2023 Construct embedding
#> Fri Sep 15 12:58:37 2023 Finished embedding

fitted_model$get_topic_info() %>%
  dplyr::tibble()
#> # A tibble: 36 × 5
#>    Topic Count Name                           Representation Representative_Docs
#>    <dbl> <dbl> <chr>                          <list>         <list>             
#>  1    -1  1750 -1_hispanicheritagemonth_mont… <chr [10]>     <chr [3]>          
#>  2     0   278 0_beto_trump_vote_fake         <chr [10]>     <chr [3]>          
#>  3     1   238 1_night_heritage night_herita… <chr [10]>     <chr [3]>          
#>  4     2   168 2_dance_salsa_music_tito       <chr [10]>     <chr [3]>          
#>  5     3   150 3_heritage month_month_octobe… <chr [10]>     <chr [3]>          
#>  6     4   126 4_students_school_grade_proje… <chr [10]>     <chr [3]>          
#>  7     5   109 5_latinx_latina_uber_latinas   <chr [10]>     <chr [3]>          
#>  8     6    94 6_mdcps_mdcpscentral_celebrat… <chr [10]>     <chr [3]>          
#>  9     7    90 7_good thread_thread_yup_yes   <chr [10]>     <chr [3]>          
#> 10     8    90 8_hispanicheritagemonth hispa… <chr [10]>     <chr [3]>          
#> # ℹ 26 more rows
```
…
