Wraps bertopic through reticulate • BertopicR
…
#Fit the model
fitted_model <- bt_fit_model(model = topic_model, 
                             documents = data$message, 
                             embeddings = embeddings)

fitted_model$get_topic_info() %>%
  dplyr::tibble()
#> # A tibble: 34 × 3
#>    Topic Count Name                                                 
#>    <dbl> <dbl> <chr>                                                
#>  1    -1  1760 -1_music_honor_amazing_spanish                       
#>  2     0   197 0_celebrates_month celebration_october_heritage month
#>  3     1   185 1_heritage night_festival_night_heritage celebration 
#>  4     2   177 2_teachers_grade_students_parents                    
#>  5     3   170 3_white_black_like_really                            
#>  6     4   130 4_world_going_latina_got                             
#>  7     5   125 5_awesome_yes_love_cool                              
#>  8     6   119 6_utsw_hispanics_hispanicheritage_news               
#>  9     7   108 7_latinx_latina_ll_chance                            
#> 10     8    96 8_honored_community_honor_hosting                    
#> # ℹ 24 more rows
…
