Manipulating the Model • BertopicR
…
For larger topics we could use ParseR to analyse topic bigrams here,
but since these topics are relatively small, we can just examine
exemplars.

data %>%
  filter(topic %in% c(2,14)) %>%
  select(sentence, topic)
#> # A tibble: 31 × 2
#>    sentence                                    topic
#>    <chr>                                       <int>
#>  1 the juice of lemons makes fine punch.           2
#>  2 smoky fires lack flame and heat.               14
#>  3 place a rosebush near the porch steps.         14
#>  4 the fruit peel was cut in thick slices.         2
#>  5 cut the pie into large parts.                   2
#>  6 the ripe taste of cheese improves with age.     2
#>  7 move the vat over the hot fire.                14
#>  8 burn peat after the logs give out.             14
#>  9 he ordered peach pie with ice cream.            2
#> 10 the slang word for raw whiskey is booze.        2
#> # ℹ 21 more rows
…
Once you have settled on a new list of topics that you are happy
with, we can update the dataframe we have been keeping. For example, if
after looking at the data we decided that the Tokenset Similarity method
was the most appropriate:

data <- data %>%
  mutate(new_topics = outliers_ts_sim$new_topics)

data %>%
  filter(merged_topics == -1) %>%
  select(merged_topics, new_topics)
#> # A tibble: 179 × 2
#>    merged_topics new_topics
#>            <int>      <dbl>
#>  1            -1         -1
#>  2            -1         16
#>  3            -1         26
#>  4            -1         24
#>  5            -1         47
#>  6            -1         14
#>  7            -1          4
#>  8            -1          9
#>  9            -1         -1
#> 10            -1         -1
#> # ℹ 169 more rows
…
