bertopic • BertopicR
…
Exploring Topics

Now we might need to take a closer look at each topic to understand
better what they are about. To do this we use the makedf() function to
merge the bert results with the Sprinklr export. We can then look at
topics using ParseR to create bigrams, the BertopicR function
viz_top_terms() to create a top terms plot or look at exemplars by
filtering the df to the topic we’re interested in.

merged_df <- data %>% makedf(model = model, 
                             embeddings = embeddings,
                             text_var = text_clean)

merged_df
#> # A tibble: 5,829 × 61
#>    document universal_message_id                   social_network sender_user_id
#>       <int> <chr>                                  <chr>          <chr>         
#>  1        1 TWITTER_4_1057818026265980928          TWITTER        328184177     
#>  2        2 TWITTER_2_1057782423700815873          TWITTER        2544249232    
#>  3        3 TWITTER_2_1057758721747701762          TWITTER        227137623     
#>  4        4 TWITTER_2_1057744985527910401          TWITTER        21702500      
#>  5        5 TWITTER_2_1057730393053519873          TWITTER        1708113440    
#>  6        6 INSTAGRAM_36_1902499764302394154_5416… INSTAGRAM      agriosmo      
#>  7        7 TWITTER_2_1057716292281622528          TWITTER        7395452317968…
#>  8        8 TWITTER_2_1057700738732908546          TWITTER        4258372295    
#>  9        9 INSTAGRAM_36_1902419377766942925_7958… INSTAGRAM      tasteofstylec…
#> 10       10 INSTAGRAM_36_1902389293970072552_1934… INSTAGRAM      salviqtpie84  
#> # ℹ 5,819 more rows
#> # ℹ 57 more variables: sender_screen_name <chr>, sender_listed_name <chr>,
#> #   sender_profile_img_url <chr>, sender_profile_link <lgl>,
#> #   sender_followers_count <dbl>, sender_influencer_score <lgl>,
#> #   sender_age <lgl>, sender_gender <chr>, title <chr>, text_clean <chr>,
#> #   message <chr>, message_type <chr>, created_time <date>, language <chr>,
#> #   language_code <chr>, country_code <chr>, media_type_list <chr>, …
…
