Manipulating the Model • BertopicR
…
For larger topics we could use ParseR to analyse topic bigrams here,
but since these topics are relatively small, we can just examine
exemplars.

data %>%
  filter(topic %in% c(2,14)) %>%
  select(sentence, topic)
#> # A tibble: 32 × 2
#>    sentence                                       topic
#>    <chr>                                          <int>
#>  1 press the pants and sew a button on the vest.      2
#>  2 hoist the load to your left shoulder.              2
#>  3 split the log with a quick, sharp blow.            2
#>  4 the coffee stand is too high for the couch.       14
#>  5 the sofa cushion is red and of light weight.      14
#>  6 the jacket hung on the back of the wide chair.    14
#>  7 the office paint was a dull, sad tan.             14
#>  8 do that with a wooden stick.                       2
#>  9 cut the cord that binds the box tightly.           2
#> 10 the last switch cannot be turned off.              2
#> # ℹ 22 more rows
…
Once you have settled on a new list of topics that you are happy
with, we can update the dataframe we have been keeping. For example, if
after looking at the data we decided that the Tokenset Similarity method
was the most appropriate:

data <- data %>%
  mutate(new_topics = outliers_ts_sim$new_topics)

data %>%
  filter(merged_topics == -1) %>%
  select(merged_topics, new_topics)
#> # A tibble: 192 × 2
#>    merged_topics new_topics
#>            <int>      <dbl>
#>  1            -1         -1
#>  2            -1         48
#>  3            -1          3
#>  4            -1         -1
#>  5            -1         26
#>  6            -1         39
#>  7            -1         37
#>  8            -1         28
#>  9            -1         20
#> 10            -1         -1
#> # ℹ 182 more rows
…
