Interacting with individaul modules • BertopicR
…
With the exception of the outlier group, the clusters are labelled in
order of size:

data %>%
  count(cluster, sort = TRUE)
#> # A tibble: 58 × 2
#>    cluster     n
#>      <int> <int>
#>  1      -1   213
#>  2       0    34
#>  3       1    19
#>  4       2    18
#>  5       3    18
#>  6       4    17
#>  7       5    13
#>  8       6    13
#>  9       7    13
#> 10       8    13
#> # ℹ 48 more rows
…
topic_representations <- topic_model$get_topic_info()
topic_rep_lookup <- topic_representations %>%
  select(topic = Topic, description = Name, topic_size = Count)

data <- data %>%
  mutate(topic = topic_model$topics_) %>%
  left_join(topic_rep_lookup)
#> Joining with `by = join_by(topic)`

(data <- data %>% 
  relocate(sentence, topic, topic_size, description)
)
#> # A tibble: 720 × 7
#>    sentence   topic topic_size description embeddings reduced_embeddings cluster
#>    <chr>      <dbl>      <dbl> <chr>       <list>     <list>               <int>
#>  1 the birch…    -1        213 -1_night_l… <dbl[…]>   <dbl [720 × 10]>        -1
#>  2 glue the …    -1        213 -1_night_l… <dbl[…]>   <dbl [720 × 10]>        -1
#>  3 it's easy…    43          6 43_pipe_te… <dbl[…]>   <dbl [720 × 10]>        39
#>  4 these day…     2         18 2_sweet_ra… <dbl[…]>   <dbl [720 × 10]>         2
#>  5 rice is o…     2         18 2_sweet_ra… <dbl[…]>   <dbl [720 × 10]>         2
#>  6 the juice…    14         10 14_tree_se… <dbl[…]>   <dbl [720 × 10]>        14
#>  7 the box w…    45          5 45_box_squ… <dbl[…]>   <dbl [720 × 10]>        50
#>  8 the hogs …    -1        213 -1_night_l… <dbl[…]>   <dbl [720 × 10]>        -1
#>  9 four hour…    -1        213 -1_night_l… <dbl[…]>   <dbl [720 × 10]>        -1
#> 10 a large s…    -1        213 -1_night_l… <dbl[…]>   <dbl [720 × 10]>        -1
#> # ℹ 710 more rows
…
For larger topics we could use ParseR to analyse topic bigrams here,
but since these topics are relatively small, we can just examine
exemplars.

data %>%
  filter(topic %in% c(2,14)) %>% 
  select(sentence, topic)
#> # A tibble: 28 × 2
#>    sentence                                 topic
#>    <chr>                                    <dbl>
#>  1 these days a chicken leg is a rare dish.     2
#>  2 rice is often served in round bowls.         2
#>  3 the juice of lemons makes fine punch.       14
#>  4 a pot of tea helps to pass the evening.      2
#>  5 a cup of sugar makes sweet fudge.            2
#>  6 the fruit peel was cut in thick slices.     14
#>  7 a pound of sugar costs more than eggs.       2
#>  8 he ordered peach pie with ice cream.        14
#>  9 the fruit of a fig tree is apple shaped.    14
#> 10 fruit flavors are used in fizz drinks.      14
#> # ℹ 18 more rows
…
Once you have settled on a new list of topics that you are happy
with, we can update the dataframe we have been keeping. For example, if
after looking at the data we decided that the Tokenset Similarity method
was the most appropriate:

data <- data %>%
  mutate(new_topics = outliers_ts_sim$new_topics)

data %>%
  filter(merged_topics == -1) %>%
  select(merged_topics, new_topics)
#> # A tibble: 213 × 2
#>    merged_topics new_topics
#>            <int>      <dbl>
#>  1            -1         -1
#>  2            -1         32
#>  3            -1         -1
#>  4            -1         50
#>  5            -1         31
#>  6            -1          8
#>  7            -1         27
#>  8            -1         -1
#>  9            -1         53
#> 10            -1         37
#> # ℹ 203 more rows
…
