Manipulating the Model • BertopicR
…
For larger topics we might need to use more sophisticated language
analysis tools, but since these topics are relatively small, we can just
examine exemplars.

data %>%
  filter(topic %in% c(2,14)) %>%
  select(sentence, topic)
#> # A tibble: 28 × 2
#>    sentence                                           topic
#>    <chr>                                              <int>
#>  1 wipe the grease off his dirty face.                    2
#>  2 the ship was torn apart on the sharp reef.            14
#>  3 the navy attacked the big task force.                 14
#>  4 the fin was sharp and cut the clear water.            14
#>  5 bail the boat to stop it from sinking.                14
#>  6 a cramp is no small danger on a swim.                 14
#>  7 mud was spattered on the front of his white shirt.     2
#>  8 the pirates seized the crew of the lost ship.         14
#>  9 a rag will soak up spilled water.                      2
#> 10 they felt gay when the ship arrived in port.          14
#> # ℹ 18 more rows
…
Once you have settled on a new list of topics that you are happy
with, we can update the dataframe we have been keeping. For example, if
after looking at the data we decided that the Tokenset Similarity method
was the most appropriate:

data <- data %>%
  mutate(new_topics = outliers_ts_sim$new_topics)

data %>%
  filter(merged_topics == -1) %>%
  select(merged_topics, new_topics)
#> # A tibble: 189 × 2
#>    merged_topics new_topics
#>            <int>      <dbl>
#>  1            -1         -1
#>  2            -1         46
#>  3            -1         -1
#>  4            -1         59
#>  5            -1         -1
#>  6            -1         41
#>  7            -1         -1
#>  8            -1         34
#>  9            -1         56
#> 10            -1         -1
#> # ℹ 179 more rows
…
